…
  # 요약 통계량 계산
  > median(gapminder$gdpPercap)
  > apply(gapminder[,4:6], 2, mean)
  > summary(gapminder)
  
#### dplyr (디플라이어) 를 이용한 방법
  > library(dplyr)
  
  ## tbl_df 클래스 속성 부여
  > i2 <- tbl_df(iris)
  > class(i2)
  [1] "tbl_df"     "tbl"        "data.frame"
  > i2
  # A tibble: 150 x 5
     Sepal.Length Sepal.Width Petal.Length Petal.Width Species
            <dbl>       <dbl>        <dbl>       <dbl> <fct>  
   1          5.1         3.5          1.4         0.2 setosa 
   2          4.9         3            1.4         0.2 setosa 
   3          4.7         3.2          1.3         0.2 setosa 
   4          4.6         3.1          1.5         0.2 setosa 
   5          5           3.6          1.4         0.2 setosa 
   6          5.4         3.9          1.7         0.4 setosa 
   7          4.6         3.4          1.4         0.3 setosa 
   8          5           3.4          1.5         0.2 setosa 
   9          4.4         2.9          1.4         0.2 setosa 
  10          4.9         3.1          1.5         0.1 setosa 
  # ... with 140 more rows
…
  > gapminder %>% filter(year==2007)
  > gapminder %>% filter(country=='Korea, Rep.', year==2007)
  
  ## 행을 정렬하는 arrange
  > arrange(gapminder, year, country)
  > gapminder %>% arrange(year, country)
  # A tibble: 1,704 x 6
    country     continent  year lifeExp      pop gdpPercap
    <fct>       <fct>     <int>   <dbl>    <int>     <dbl>
  1 Afghanistan Asia       1952    28.8  8425333      779.
  2 Albania     Europe     1952    55.2  1282697     1601.
  3 Algeria     Africa     1952    43.1  9279525     2449.
  4 Angola      Africa     1952    30.0  4232095     3521.
  5 Argentina   Americas   1952    62.5 17876956     5911.
  6 Australia   Oceania    1952    69.1  8691212    10040.
  7 Austria     Europe     1952    66.8  6927772     6137.
  8 Bahrain     Asia       1952    50.9   120447     9867.
  9 Bangladesh  Asia       1952    37.5 46886859      684.
  10 Belgium     Europe     1952    68    8730405     8343.
  # ... with 1,694 more rows

  ## 열(변수)를 선택하는 select
  > select(gapminder, pop, gdpPercap)
  > gapminder %>% select(pop, gdpPercap)
  # A tibble: 1,704 x 2
          pop gdpPercap
        <int>     <dbl>
  1  8425333      779.
  2  9240934      821.
  3 10267083      853.
  4 11537966      836.
  5 13079460      740.
  6 14880372      786.
  7 12881816      978.
  8 13867957      852.
  9 16317921      649.
  10 22227415      635.
  # ... with 1,694 more rows

  ## 변수를 변환하는 mutate
  > gapminder %>%
  +   mutate(total_gdp = pop * gdpPercap,
  +          le_gdp_ratio = lifeExp / gdpPercap,
  +          lgrk = le_gdp_ratio * 100)
  # A tibble: 1,704 x 9
     country     continent  year lifeExp      pop gdpPercap    total_gdp le_gdp_ratio  lgrk
     <fct>       <fct>     <int>   <dbl>    <int>     <dbl>        <dbl>        <dbl> <dbl>
  1 Afghanistan Asia       1952    28.8  8425333      779.  6567086330.       0.0370  3.70
  2 Afghanistan Asia       1957    30.3  9240934      821.  7585448670.       0.0370  3.70
  3 Afghanistan Asia       1962    32.0 10267083      853.  8758855797.       0.0375  3.75
  4 Afghanistan Asia       1967    34.0 11537966      836.  9648014150.       0.0407  4.07
  5 Afghanistan Asia       1972    36.1 13079460      740.  9678553274.       0.0488  4.88
  6 Afghanistan Asia       1977    38.4 14880372      786. 11697659231.       0.0489  4.89
  7 Afghanistan Asia       1982    39.9 12881816      978. 12598563401.       0.0408  4.08
  8 Afghanistan Asia       1987    40.8 13867957      852. 11820990309.       0.0479  4.79
  9 Afghanistan Asia       1992    41.7 16317921      649. 10595901589.       0.0642  6.42
  10 Afghanistan Asia       1997    41.8 22227415      635. 14121995875.       0.0657  6.57
  # ... with 1,694 more rows
…
  ## 고유한 행을 찾아내는 distinct
  > distinct(select(gapminder, country))
  > gapminder %>% select(country) %>% distinct
  # A tibble: 142 x 1
     country    
     <fct>      
   1 Afghanistan
   2 Albania    
   3 Algeria    
   4 Angola     
   5 Argentina  
   6 Australia  
   7 Austria    
   8 Bahrain    
   9 Bangladesh 
  10 Belgium    
  # ... with 132 more rows
…
